Keyword and Collocation analysis on India-related text of Natural History
…
Natural History by Pliny the Elder is considered the very first encyclopedia in modern history. It not only showcased the actual merchant exchange of the Roman Empire, but also manifested the spatial imagination of Pliny the Elder and the referenced scholarships of that time.

data <- read.csv("geotext_whole.csv")

summary_data <- data %>%
  group_by(ToposText_ID, Place_Name, Lat, Long) %>%
  summarise(Count = n()) %>%
  arrange(desc(Count)) %>%
  ungroup()

top_20_summary_data <- summary_data %>%
  top_n(20, Count) %>%
  ungroup() %>% print()

# A tibble: 22 × 5
   ToposText_ID                           Place_Name   Lat  Long Count
   <chr>                                  <chr>      <dbl> <dbl> <int>
 1 https://topostext.org/place/406163RIta Italy       40.6 16.3    292
 2 https://topostext.org/place/419125PRom Rome        41.9 12.5    269
 3 https://topostext.org/place/271307REgy Egypt       27.1 30.7    261
 4 https://topostext.org/place/300740RInd India       30   74      167
 5 https://topostext.org/place/280400RAra Arabia      28   40      123
 6 https://topostext.org/place/355390RSyr Syria       35.5 39      109
 7 https://topostext.org/place/312301WNil Nile        30.1 31.2     85
 8 https://topostext.org/place/350330RCyp Cyprus      35   33       85
 9 https://topostext.org/place/441073LAlp Alps        44.1  7.34    82
10 https://topostext.org/place/376145RSic Sicily      37.6 14.5     71
# ℹ 12 more rows
…
